%YAML 1.1
%TAG !u! tag:unity3d.com,2011:
--- !u!74 &7400000
AnimationClip:
  m_ObjectHideFlags: 0
  m_CorrespondingSourceObject: {fileID: 0}
  m_PrefabInternal: {fileID: 0}
  m_Name: Plague Attack
  serializedVersion: 6
  m_Legacy: 0
  m_Compressed: 0
  m_UseHighQualityCurve: 1
  m_RotationCurves: []
  m_CompressedRotationCurves: []
  m_EulerCurves: []
  m_PositionCurves: []
  m_ScaleCurves: []
  m_FloatCurves: []
  m_PPtrCurves:
  - curve:
    - time: 0
      value: {fileID: 21300000, guid: 1768a75f8ab8f4c6d92a821be8e9ca90, type: 3}
    - time: 0.016666668
      value: {fileID: 21300000, guid: aff1a73464c38462fbd1fdfd976551c0, type: 3}
    - time: 0.033333335
      value: {fileID: 21300000, guid: 2fb56ddf464c841a38ddc8b773bcda12, type: 3}
    - time: 0.05
      value: {fileID: 21300000, guid: 794886a5e56c6434d925cb6bf6c0c4a4, type: 3}
    - time: 0.06666667
      value: {fileID: 21300000, guid: dfb8e24e2a70949f08a226117d6c77e2, type: 3}
    - time: 0.083333336
      value: {fileID: 21300000, guid: 4833c6288a8bd483a8b101a016b1b9db, type: 3}
    - time: 0.1
      value: {fileID: 21300000, guid: ca0a948fd3a7f48b082664084c76cc78, type: 3}
    - time: 0.11666667
      value: {fileID: 21300000, guid: 59b095f7932964aba88d07183424dbec, type: 3}
    - time: 0.13333334
      value: {fileID: 21300000, guid: cc4364c918f094ed982f3ed31f4c40c6, type: 3}
    - time: 0.15
      value: {fileID: 21300000, guid: 94ef46f9e6bbb4fccbd163b6a62d5eaf, type: 3}
    - time: 0.16666667
      value: {fileID: 21300000, guid: 7ab8483d7978b444bbac31aa80a8041c, type: 3}
    - time: 0.18333334
      value: {fileID: 21300000, guid: e6a61d4ad8dd14d808e03a8f25fa4cee, type: 3}
    - time: 0.2
      value: {fileID: 21300000, guid: f6c5e9762ebe948d9810f0aed5d79ee3, type: 3}
    - time: 0.21666667
      value: {fileID: 21300000, guid: 1a334a7d340dd4c05b279df66d899740, type: 3}
    - time: 0.23333333
      value: {fileID: 21300000, guid: b31e5b212bc1347f596fca41d8aff0cd, type: 3}
    - time: 0.26666668
      value: {fileID: 21300000, guid: baf2cadbfe5624116bfee68d0043e1ea, type: 3}
    - time: 0.28333333
      value: {fileID: 21300000, guid: 4de6fd3be488f432ca0aa137b4472073, type: 3}
    - time: 0.3
      value: {fileID: 21300000, guid: 54ee9e36f28cf4d88b2962ea49d5e088, type: 3}
    - time: 0.31666666
      value: {fileID: 21300000, guid: e36e2dedace82434eb80d986205f5558, type: 3}
    - time: 0.33333334
      value: {fileID: 21300000, guid: ce6d07d41402648e58a2e13f3fe75743, type: 3}
    - time: 0.35
      value: {fileID: 21300000, guid: 8dfa8a37270b24b029cc2781fe5e442b, type: 3}
    - time: 0.36666667
      value: {fileID: 21300000, guid: 987d4a837df3e498282165daa02840af, type: 3}
    - time: 0.38333333
      value: {fileID: 21300000, guid: b8ed192110e904be1b09b05e02cb4b9c, type: 3}
    - time: 0.4
      value: {fileID: 21300000, guid: b4a008590872444daaf11f1da5383b99, type: 3}
    - time: 0.41666666
      value: {fileID: 21300000, guid: 5438e0002938d46bd87cbb8e27ef56ac, type: 3}
    - time: 0.43333334
      value: {fileID: 21300000, guid: 2ad59328893ec439bafe217860af6e7a, type: 3}
    - time: 0.45
      value: {fileID: 21300000, guid: 01338050bd9254e3388e30cb284e6399, type: 3}
    - time: 0.46666667
      value: {fileID: 21300000, guid: 48249fd5c8f4f4389ae5e475c7e9af73, type: 3}
    - time: 0.48333332
      value: {fileID: 21300000, guid: 5d8c134947dd54ca48bfb0f175b2bbd2, type: 3}
    - time: 0.5
      value: {fileID: 21300000, guid: bfdb22f229c164420bfce5b1914f3d1f, type: 3}
    attribute: m_Sprite
    path: 
    classID: 212
    script: {fileID: 0}
  m_SampleRate: 60
  m_WrapMode: 0
  m_Bounds:
    m_Center: {x: 0, y: 0, z: 0}
    m_Extent: {x: 0, y: 0, z: 0}
  m_ClipBindingConstant:
    genericBindings:
    - serializedVersion: 2
      path: 0
      attribute: 0
      script: {fileID: 0}
      typeID: 212
      customType: 23
      isPPtrCurve: 1
    pptrCurveMapping:
    - {fileID: 21300000, guid: 1768a75f8ab8f4c6d92a821be8e9ca90, type: 3}
    - {fileID: 21300000, guid: aff1a73464c38462fbd1fdfd976551c0, type: 3}
    - {fileID: 21300000, guid: 2fb56ddf464c841a38ddc8b773bcda12, type: 3}
    - {fileID: 21300000, guid: 794886a5e56c6434d925cb6bf6c0c4a4, type: 3}
    - {fileID: 21300000, guid: dfb8e24e2a70949f08a226117d6c77e2, type: 3}
    - {fileID: 21300000, guid: 4833c6288a8bd483a8b101a016b1b9db, type: 3}
    - {fileID: 21300000, guid: ca0a948fd3a7f48b082664084c76cc78, type: 3}
    - {fileID: 21300000, guid: 59b095f7932964aba88d07183424dbec, type: 3}
    - {fileID: 21300000, guid: cc4364c918f094ed982f3ed31f4c40c6, type: 3}
    - {fileID: 21300000, guid: 94ef46f9e6bbb4fccbd163b6a62d5eaf, type: 3}
    - {fileID: 21300000, guid: 7ab8483d7978b444bbac31aa80a8041c, type: 3}
    - {fileID: 21300000, guid: e6a61d4ad8dd14d808e03a8f25fa4cee, type: 3}
    - {fileID: 21300000, guid: f6c5e9762ebe948d9810f0aed5d79ee3, type: 3}
    - {fileID: 21300000, guid: 1a334a7d340dd4c05b279df66d899740, type: 3}
    - {fileID: 21300000, guid: b31e5b212bc1347f596fca41d8aff0cd, type: 3}
    - {fileID: 21300000, guid: baf2cadbfe5624116bfee68d0043e1ea, type: 3}
    - {fileID: 21300000, guid: 4de6fd3be488f432ca0aa137b4472073, type: 3}
    - {fileID: 21300000, guid: 54ee9e36f28cf4d88b2962ea49d5e088, type: 3}
    - {fileID: 21300000, guid: e36e2dedace82434eb80d986205f5558, type: 3}
    - {fileID: 21300000, guid: ce6d07d41402648e58a2e13f3fe75743, type: 3}
    - {fileID: 21300000, guid: 8dfa8a37270b24b029cc2781fe5e442b, type: 3}
    - {fileID: 21300000, guid: 987d4a837df3e498282165daa02840af, type: 3}
    - {fileID: 21300000, guid: b8ed192110e904be1b09b05e02cb4b9c, type: 3}
    - {fileID: 21300000, guid: b4a008590872444daaf11f1da5383b99, type: 3}
    - {fileID: 21300000, guid: 5438e0002938d46bd87cbb8e27ef56ac, type: 3}
    - {fileID: 21300000, guid: 2ad59328893ec439bafe217860af6e7a, type: 3}
    - {fileID: 21300000, guid: 01338050bd9254e3388e30cb284e6399, type: 3}
    - {fileID: 21300000, guid: 48249fd5c8f4f4389ae5e475c7e9af73, type: 3}
    - {fileID: 21300000, guid: 5d8c134947dd54ca48bfb0f175b2bbd2, type: 3}
    - {fileID: 21300000, guid: bfdb22f229c164420bfce5b1914f3d1f, type: 3}
  m_AnimationClipSettings:
    serializedVersion: 2
    m_AdditiveReferencePoseClip: {fileID: 0}
    m_AdditiveReferencePoseTime: 0
    m_StartTime: 0
    m_StopTime: 0.51666665
    m_OrientationOffsetY: 0
    m_Level: 0
    m_CycleOffset: 0
    m_HasAdditiveReferencePose: 0
    m_LoopTime: 1
    m_LoopBlend: 0
    m_LoopBlendOrientation: 0
    m_LoopBlendPositionY: 0
    m_LoopBlendPositionXZ: 0
    m_KeepOriginalOrientation: 0
    m_KeepOriginalPositionY: 1
    m_KeepOriginalPositionXZ: 0
    m_HeightFromFeet: 0
    m_Mirror: 0
  m_EditorCurves: []
  m_EulerEditorCurves: []
  m_HasGenericRootTransform: 0
  m_HasMotionFloatCurves: 0
  m_GenerateMotionCurves: 0
  m_Events: []
