%YAML 1.1
%TAG !u! tag:unity3d.com,2011:
--- !u!74 &7400000
AnimationClip:
  m_ObjectHideFlags: 0
  m_CorrespondingSourceObject: {fileID: 0}
  m_PrefabInternal: {fileID: 0}
  m_Name: Spider Death
  serializedVersion: 6
  m_Legacy: 0
  m_Compressed: 0
  m_UseHighQualityCurve: 1
  m_RotationCurves: []
  m_CompressedRotationCurves: []
  m_EulerCurves: []
  m_PositionCurves: []
  m_ScaleCurves: []
  m_FloatCurves: []
  m_PPtrCurves:
  - curve:
    - time: 0
      value: {fileID: 21300000, guid: dcb7090dffb244ab881d7bbe43cb0757, type: 3}
    - time: 0.016666668
      value: {fileID: 21300000, guid: 4e61daa391d6d48c7adf9a31d57b6c49, type: 3}
    - time: 0.033333335
      value: {fileID: 21300000, guid: 66ae4f012c95c45e1a5e1867ba6c8148, type: 3}
    - time: 0.06666667
      value: {fileID: 21300000, guid: 7bc7ff9faa4694b49b19d31ffd0632d4, type: 3}
    - time: 0.1
      value: {fileID: 21300000, guid: fe85868e3393b438ab694930c4e8067c, type: 3}
    - time: 0.11666667
      value: {fileID: 21300000, guid: 98748534d2afe4af1a88d4839980fdd7, type: 3}
    - time: 0.13333334
      value: {fileID: 21300000, guid: a9eb368ee5d4b4038a9ad39f691580b2, type: 3}
    - time: 0.16666667
      value: {fileID: 21300000, guid: 31e695fc4593843eca55a3372747f0ff, type: 3}
    - time: 0.2
      value: {fileID: 21300000, guid: 7636e955b2e254d76bd9705aad84ca50, type: 3}
    - time: 0.21666667
      value: {fileID: 21300000, guid: 5fd33d235e2154d7584cd013ce5832c7, type: 3}
    - time: 0.25
      value: {fileID: 21300000, guid: 2fc5ae9cbe3814524a69f2f124b3c3b1, type: 3}
    - time: 0.26666668
      value: {fileID: 21300000, guid: 1e3b3530b5edf41f99e454d51e3773e8, type: 3}
    - time: 0.28333333
      value: {fileID: 21300000, guid: 3c8ab4fef15b340d489d357b6e5b1b68, type: 3}
    - time: 0.31666666
      value: {fileID: 21300000, guid: 655e973f3802a4e15b50a88cbb16154c, type: 3}
    - time: 0.33333334
      value: {fileID: 21300000, guid: 20ec8a9a827e7414c99f76a96fa7aeae, type: 3}
    - time: 0.35
      value: {fileID: 21300000, guid: 36678f023476c4fcb8ea08e0cc2905f7, type: 3}
    - time: 0.36666667
      value: {fileID: 21300000, guid: c29009f9e659741ada75122b3a87a8eb, type: 3}
    - time: 0.41666666
      value: {fileID: 21300000, guid: f5418ba72ce5e47bd9562542ca0b81c1, type: 3}
    - time: 0.45
      value: {fileID: 21300000, guid: e1725ff9fd0ca43909278f6b26e43518, type: 3}
    - time: 0.46666667
      value: {fileID: 21300000, guid: 47358ef0c166b4e12a6d2b9cedfb09b4, type: 3}
    - time: 0.48333332
      value: {fileID: 21300000, guid: a1d96a12b3c1e4fe6aa9fd6a2632e8d8, type: 3}
    - time: 0.5
      value: {fileID: 21300000, guid: a1d96a12b3c1e4fe6aa9fd6a2632e8d8, type: 3}
    - time: 0.51666665
      value: {fileID: 21300000, guid: a1d96a12b3c1e4fe6aa9fd6a2632e8d8, type: 3}
    - time: 0.53333336
      value: {fileID: 21300000, guid: a1d96a12b3c1e4fe6aa9fd6a2632e8d8, type: 3}
    - time: 0.55
      value: {fileID: 21300000, guid: a1d96a12b3c1e4fe6aa9fd6a2632e8d8, type: 3}
    - time: 0.56666666
      value: {fileID: 21300000, guid: a1d96a12b3c1e4fe6aa9fd6a2632e8d8, type: 3}
    - time: 0.5833333
      value: {fileID: 21300000, guid: a1d96a12b3c1e4fe6aa9fd6a2632e8d8, type: 3}
    - time: 0.6
      value: {fileID: 21300000, guid: a1d96a12b3c1e4fe6aa9fd6a2632e8d8, type: 3}
    - time: 0.6166667
      value: {fileID: 21300000, guid: a1d96a12b3c1e4fe6aa9fd6a2632e8d8, type: 3}
    - time: 0.6333333
      value: {fileID: 21300000, guid: a1d96a12b3c1e4fe6aa9fd6a2632e8d8, type: 3}
    attribute: m_Sprite
    path: 
    classID: 212
    script: {fileID: 0}
  m_SampleRate: 60
  m_WrapMode: 0
  m_Bounds:
    m_Center: {x: 0, y: 0, z: 0}
    m_Extent: {x: 0, y: 0, z: 0}
  m_ClipBindingConstant:
    genericBindings:
    - serializedVersion: 2
      path: 0
      attribute: 0
      script: {fileID: 0}
      typeID: 212
      customType: 23
      isPPtrCurve: 1
    pptrCurveMapping:
    - {fileID: 21300000, guid: dcb7090dffb244ab881d7bbe43cb0757, type: 3}
    - {fileID: 21300000, guid: 4e61daa391d6d48c7adf9a31d57b6c49, type: 3}
    - {fileID: 21300000, guid: 66ae4f012c95c45e1a5e1867ba6c8148, type: 3}
    - {fileID: 21300000, guid: 7bc7ff9faa4694b49b19d31ffd0632d4, type: 3}
    - {fileID: 21300000, guid: fe85868e3393b438ab694930c4e8067c, type: 3}
    - {fileID: 21300000, guid: 98748534d2afe4af1a88d4839980fdd7, type: 3}
    - {fileID: 21300000, guid: a9eb368ee5d4b4038a9ad39f691580b2, type: 3}
    - {fileID: 21300000, guid: 31e695fc4593843eca55a3372747f0ff, type: 3}
    - {fileID: 21300000, guid: 7636e955b2e254d76bd9705aad84ca50, type: 3}
    - {fileID: 21300000, guid: 5fd33d235e2154d7584cd013ce5832c7, type: 3}
    - {fileID: 21300000, guid: 2fc5ae9cbe3814524a69f2f124b3c3b1, type: 3}
    - {fileID: 21300000, guid: 1e3b3530b5edf41f99e454d51e3773e8, type: 3}
    - {fileID: 21300000, guid: 3c8ab4fef15b340d489d357b6e5b1b68, type: 3}
    - {fileID: 21300000, guid: 655e973f3802a4e15b50a88cbb16154c, type: 3}
    - {fileID: 21300000, guid: 20ec8a9a827e7414c99f76a96fa7aeae, type: 3}
    - {fileID: 21300000, guid: 36678f023476c4fcb8ea08e0cc2905f7, type: 3}
    - {fileID: 21300000, guid: c29009f9e659741ada75122b3a87a8eb, type: 3}
    - {fileID: 21300000, guid: f5418ba72ce5e47bd9562542ca0b81c1, type: 3}
    - {fileID: 21300000, guid: e1725ff9fd0ca43909278f6b26e43518, type: 3}
    - {fileID: 21300000, guid: 47358ef0c166b4e12a6d2b9cedfb09b4, type: 3}
    - {fileID: 21300000, guid: a1d96a12b3c1e4fe6aa9fd6a2632e8d8, type: 3}
    - {fileID: 21300000, guid: a1d96a12b3c1e4fe6aa9fd6a2632e8d8, type: 3}
    - {fileID: 21300000, guid: a1d96a12b3c1e4fe6aa9fd6a2632e8d8, type: 3}
    - {fileID: 21300000, guid: a1d96a12b3c1e4fe6aa9fd6a2632e8d8, type: 3}
    - {fileID: 21300000, guid: a1d96a12b3c1e4fe6aa9fd6a2632e8d8, type: 3}
    - {fileID: 21300000, guid: a1d96a12b3c1e4fe6aa9fd6a2632e8d8, type: 3}
    - {fileID: 21300000, guid: a1d96a12b3c1e4fe6aa9fd6a2632e8d8, type: 3}
    - {fileID: 21300000, guid: a1d96a12b3c1e4fe6aa9fd6a2632e8d8, type: 3}
    - {fileID: 21300000, guid: a1d96a12b3c1e4fe6aa9fd6a2632e8d8, type: 3}
    - {fileID: 21300000, guid: a1d96a12b3c1e4fe6aa9fd6a2632e8d8, type: 3}
  m_AnimationClipSettings:
    serializedVersion: 2
    m_AdditiveReferencePoseClip: {fileID: 0}
    m_AdditiveReferencePoseTime: 0
    m_StartTime: 0
    m_StopTime: 0.65
    m_OrientationOffsetY: 0
    m_Level: 0
    m_CycleOffset: 0
    m_HasAdditiveReferencePose: 0
    m_LoopTime: 1
    m_LoopBlend: 0
    m_LoopBlendOrientation: 0
    m_LoopBlendPositionY: 0
    m_LoopBlendPositionXZ: 0
    m_KeepOriginalOrientation: 0
    m_KeepOriginalPositionY: 1
    m_KeepOriginalPositionXZ: 0
    m_HeightFromFeet: 0
    m_Mirror: 0
  m_EditorCurves: []
  m_EulerEditorCurves: []
  m_HasGenericRootTransform: 0
  m_HasMotionFloatCurves: 0
  m_GenerateMotionCurves: 0
  m_Events: []
