%YAML 1.1
%TAG !u! tag:unity3d.com,2011:
--- !u!1045 &1
EditorBuildSettings:
  m_ObjectHideFlags: 0
  serializedVersion: 2
  m_Scenes:
  - enabled: 1
    path: Assets/Scenes/Game/mainMenu.unity
    guid: 32511ef8a102fcf43b257b0a0a8e2e1e
  - enabled: 1
    path: Assets/Scenes/Game/Waking Nightmare Level 1.unity
    guid: 370ef7103dbe7da44a7a35edbc25ffc2
  - enabled: 1
    path: Assets/Scenes/Game/INCUBO_Level_2.unity
    guid: 7138a3f7263375c4caddfcbc0c21aaa0
  - enabled: 1
    path: Assets/Scenes/Game/KarnEvil Boss Level.unity
    guid: 00a1bd4397fbf364ba25c16706fc81f4
  - enabled: 0
    path: 
    guid: 00000000000000000000000000000000
  - enabled: 0
    path: Assets/Scenes/test/Door Open Test.unity
    guid: 2cda990e2423bbf4892e6590ba056729
  - enabled: 0
    path: Assets/Scenes/test/Scene Swap Test.unity
    guid: 5a32ce962fccdc44ebcd2ba3019b1c96
  - enabled: 0
    path: Assets/Scenes/test/MenuTest.unity
    guid: 5cbc6584028e5ff4ca055c0642655dd7
  - enabled: 0
    path: 
    guid: 00000000000000000000000000000000
  - enabled: 0
    path: Assets/Scenes/test/Persistance Test.unity
    guid: 8773939432d736242916f6f0188cbcc9
  m_configObjects: {}
